00:00:01.662670 VirtualBox GUI VM Selector Window 6.1.22 r144080 linux.amd64 (May 11 2021 19:59:25) release log
00:00:01.662672 Log opened 2021-05-27T08:37:19.184505000Z
00:00:01.662673 Build Type: release
00:00:01.662677 OS Product: Linux
00:00:01.662678 OS Release: 5.12.5-158-tkg-MuQSS
00:00:01.662679 OS Version: #1 TKG SMP PREEMPT Wed, 19 May 2021 21:53:23 +0000
00:00:01.662711 DMI Product Name: Nitro AN515-52
00:00:01.662720 DMI Product Version: V1.28
00:00:01.662726 Firmware type: UEFI
00:00:01.663718 Secure Boot: Disabled
00:00:01.663773 Host RAM: 7795MB (7.6GB) total, 6641MB (6.4GB) available
00:00:01.663783 Executable: /usr/lib/virtualbox/VirtualBox
00:00:01.663783 Process ID: 25734
00:00:01.663784 Package type: LINUX_64BITS_GENERIC (OSE)
00:00:01.663829 Qt version: 5.15.2
00:00:01.673818 GUI: UIMediumEnumerator: Medium-enumeration started...
00:00:01.673841 GUI: UIMediumEnumerator: Medium-enumeration finished!
00:00:02.395757 GUI: UIDesktopWidgetWatchdog::sltHandleHostScreenAvailableGeometryCalculated: Screen 0 work area is actually resized to: 0x36 x 1920x1044
00:02:06.695904 GUI: UIMediumEnumerator: Medium with key={{814b21d8-149a-44d7-9b3b-2131cbd43cd3}} created
00:02:07.268892 GUI: UIMediumEnumerator: Medium-enumeration finished!
00:04:31.024157 GUI: UIMediumEnumerator: Medium with key={{d2d5d0b7-1e93-48f0-8361-4b670389c53f}} created
00:04:31.183493 GUI: UIMediumEnumerator: Medium-enumeration finished!
00:05:14.176546 GUI: UIMediumEnumerator: Medium-enumeration finished!
00:05:14.519473 GUI: UIMediumEnumerator: Medium-enumeration finished!
00:15:16.045637 ERROR [COM]: aRC=NS_ERROR_UNEXPECTED (0x8000ffff) aIID={c0447716-ff5a-4795-b57a-ecd5fffa18a4} aComponent={SessionWrap} aText={The session is not locked (session state: Unlocked)}, preserve=false aResultDetail=0
00:19:21.152016 ERROR [COM]: aRC=NS_ERROR_UNEXPECTED (0x8000ffff) aIID={c0447716-ff5a-4795-b57a-ecd5fffa18a4} aComponent={SessionWrap} aText={The session is not locked (session state: Unlocked)}, preserve=false aResultDetail=0
00:21:50.273014 ERROR [COM]: aRC=NS_ERROR_UNEXPECTED (0x8000ffff) aIID={c0447716-ff5a-4795-b57a-ecd5fffa18a4} aComponent={SessionWrap} aText={The session is not locked (session state: Unlocked)}, preserve=false aResultDetail=0
