00:00:00.000191 main     VirtualBox XPCOM Server 6.1.22 r144080 linux.amd64 (May 11 2021 19:59:25) release log
00:00:00.000194 main     Log opened 2021-05-27T08:37:18.806039000Z
00:00:00.000194 main     Build Type: release
00:00:00.000196 main     OS Product: Linux
00:00:00.000198 main     OS Release: 5.12.5-158-tkg-MuQSS
00:00:00.000199 main     OS Version: #1 TKG SMP PREEMPT Wed, 19 May 2021 21:53:23 +0000
00:00:00.000217 main     DMI Product Name: Nitro AN515-52
00:00:00.000225 main     DMI Product Version: V1.28
00:00:00.000229 main     Firmware type: UEFI
00:00:00.001189 main     Secure Boot: Disabled
00:00:00.001239 main     Host RAM: 7795MB (7.6GB) total, 6644MB (6.4GB) available
00:00:00.001244 main     Executable: /usr/lib/virtualbox/VBoxSVC
00:00:00.001244 main     Process ID: 25762
00:00:00.001245 main     Package type: LINUX_64BITS_GENERIC (OSE)
00:00:00.003136 main     IPC socket path: /tmp/.vbox-hallnknight-ipc/ipcd
00:00:00.108234 nspr-2   VirtualBox: object creation starts
00:00:00.108301 nspr-2   Home directory: '/home/hallnknight/.config/VirtualBox'
00:00:00.109789 nspr-2   USB: Unknown USB device detected (idVendor: 0x8087, idProduct: 0x0aaa)
00:00:00.109865 nspr-2   Successfully initialised host USB using sysfs
00:00:00.182747 nspr-2   HostDnsMonitor: initializing
00:00:00.182900 nspr-2   HostDnsMonitor: updating information
00:00:00.182909 nspr-2   HostDnsMonitor: unchanged
00:00:00.184963 nspr-2   Failed to open "/dev/vboxdrvu", errno=2, rc=VERR_VM_DRIVER_NOT_INSTALLED
00:00:00.259410 nspr-2   VD: VDInit finished with VINF_SUCCESS
00:00:00.261416 nspr-2   OCI: Local config file '/home/hallnknight/.config/VirtualBox/oci_config' does not exist
00:00:00.261435 nspr-2   OCI: Original config file '/home/hallnknight/.oci/config' does not exist
00:00:00.261439 nspr-2   OCI: Reading profiles finished with status NS_OK
00:00:00.261448 nspr-2   ExtPack: Created cloud provider 'OCI' (hrc=NS_OK)
00:00:00.261463 nspr-2   VirtualBox: object created
00:00:10.431731 nspr-3   Failed to open "/dev/vboxdrvu", errno=2, rc=VERR_VM_DRIVER_NOT_INSTALLED
00:00:10.432387 nspr-3   Failed to open "/dev/vboxdrvu", errno=2, rc=VERR_VM_DRIVER_NOT_INSTALLED
00:02:04.760530 createBase Saving settings file "/home/hallnknight/.config/VirtualBox/VirtualBox.xml" with version "1.12-linux"
00:02:05.459396 nspr-4   Saving settings file "/home/hallnknight/VirtualBox VMs/Arco/Arco.vbox" with version "1.16-linux"
00:02:05.532630 nspr-2   Saving settings file "/home/hallnknight/VirtualBox VMs/Arco/Arco.vbox" with version "1.16-linux"
00:02:05.596543 nspr-2   Saving settings file "/home/hallnknight/.config/VirtualBox/VirtualBox.xml" with version "1.12-linux"
00:02:05.666858 nspr-2   Saving settings file "/home/hallnknight/.config/VirtualBox/VirtualBox.xml" with version "1.12-linux"
00:02:05.741930 nspr-2   Saving settings file "/home/hallnknight/VirtualBox VMs/Arco/Arco.vbox" with version "1.16-linux"
00:02:06.329955 nspr-4   Failed to open "/dev/vboxdrvu", errno=2, rc=VERR_VM_DRIVER_NOT_INSTALLED
00:02:16.259098 nspr-2   Failed to open "/dev/vboxdrvu", errno=2, rc=VERR_VM_DRIVER_NOT_INSTALLED
00:02:17.361078 nspr-2   Failed to open "/dev/vboxdrvu", errno=2, rc=VERR_VM_DRIVER_NOT_INSTALLED
00:02:17.361256 nspr-4   Failed to open "/dev/vboxdrvu", errno=2, rc=VERR_VM_DRIVER_NOT_INSTALLED
00:02:17.361423 nspr-2   Failed to open "/dev/vboxdrvu", errno=2, rc=VERR_VM_DRIVER_NOT_INSTALLED
00:02:17.656719 nspr-2   Failed to open "/dev/vboxdrvu", errno=2, rc=VERR_VM_DRIVER_NOT_INSTALLED
00:04:29.741264 nspr-3   Saving settings file "/home/hallnknight/.config/VirtualBox/VirtualBox.xml" with version "1.12-linux"
00:04:29.814811 nspr-3   Saving settings file "/home/hallnknight/.config/VirtualBox/VirtualBox.xml" with version "1.12-linux"
00:05:12.853573 nspr-4   Saving settings file "/home/hallnknight/.config/VirtualBox/VirtualBox.xml" with version "1.12-linux"
00:05:12.878264 nspr-2   Failed to open "/dev/vboxdrvu", errno=2, rc=VERR_VM_DRIVER_NOT_INSTALLED
00:05:12.911570 nspr-2   Failed to open "/dev/vboxdrvu", errno=2, rc=VERR_VM_DRIVER_NOT_INSTALLED
00:05:12.993872 nspr-3   Saving settings file "/home/hallnknight/VirtualBox VMs/Arco/Arco.vbox" with version "1.16-linux"
00:05:13.061500 nspr-4   Saving settings file "/home/hallnknight/VirtualBox VMs/Arco/Arco.vbox" with version "1.16-linux"
00:05:13.251499 nspr-2   Failed to open "/dev/vboxdrvu", errno=2, rc=VERR_VM_DRIVER_NOT_INSTALLED
00:05:16.043071 nspr-4   Launched VM: 2281712400 pid: 36114 (0x8d12) frontend: GUI/Qt name: Arco
00:05:16.068424 nspr-3   Failed to open "/dev/vboxdrvu", errno=2, rc=VERR_VM_DRIVER_NOT_INSTALLED
00:05:16.543513 Watcher  ERROR [COM]: aRC=NS_ERROR_FAILURE (0x80004005) aIID={85632c68-b5bb-4316-a900-5eb28d3413df} aComponent={MachineWrap} aText={The virtual machine 'Arco' has terminated unexpectedly during startup with exit code 1 (0x1)}, preserve=false aResultDetail=0
00:05:17.119088 nspr-3   Failed to open "/dev/vboxdrvu", errno=2, rc=VERR_VM_DRIVER_NOT_INSTALLED
00:09:41.577682 MainPower Host suspending: Paused 0 VMs
00:09:51.750343 MainPower Host resumed: Resumed 0 VMs
00:09:52.493127 USBPROXY USBProxyBackendLinux: Device 2717:ff40 (sysfs:/sys/devices/pci0000:00/0000:00:14.0/usb1/1-1//device:/dev/vboxusb/001/008) isn't accessible. giving udev a few seconds to fix this...
00:17:53.528229 nspr-3   Launched VM: 2281714624 pid: 49262 (0xc06e) frontend: GUI/Qt name: Arco
00:17:54.028653 Watcher  ERROR [COM]: aRC=NS_ERROR_FAILURE (0x80004005) aIID={85632c68-b5bb-4316-a900-5eb28d3413df} aComponent={MachineWrap} aText={The virtual machine 'Arco' has terminated unexpectedly during startup with exit code 1 (0x1)}, preserve=false aResultDetail=0
00:17:54.876187 nspr-2   Failed to open "/dev/vboxdrvu", errno=2, rc=VERR_VM_DRIVER_NOT_INSTALLED
00:19:21.879895 nspr-3   Launched VM: 2281715024 pid: 49919 (0xc2ff) frontend: GUI/Qt name: Arco
00:19:21.905732 nspr-2   Failed to open "/dev/vboxdrvu", errno=2, rc=VERR_VM_DRIVER_NOT_INSTALLED
00:19:22.380233 Watcher  ERROR [COM]: aRC=NS_ERROR_FAILURE (0x80004005) aIID={85632c68-b5bb-4316-a900-5eb28d3413df} aComponent={MachineWrap} aText={The virtual machine 'Arco' has terminated unexpectedly during startup with exit code 1 (0x1)}, preserve=false aResultDetail=0
00:19:22.952354 nspr-3   Failed to open "/dev/vboxdrvu", errno=2, rc=VERR_VM_DRIVER_NOT_INSTALLED
00:21:52.569361 nspr-4   Saving settings file "/home/hallnknight/.config/VirtualBox/VirtualBox.xml" with version "1.12-linux"
00:21:54.045896 nspr-4   Saving settings file "/home/hallnknight/.config/VirtualBox/VirtualBox.xml" with version "1.12-linux"
00:21:56.351806 nspr-4   Saving settings file "/home/hallnknight/.config/VirtualBox/VirtualBox.xml" with version "1.12-linux"
00:21:59.567084 nspr-3   Saving settings file "/home/hallnknight/.config/VirtualBox/VirtualBox.xml" with version "1.12-linux"
00:22:03.304424 nspr-4   Saving settings file "/home/hallnknight/.config/VirtualBox/VirtualBox.xml" with version "1.12-linux"
00:22:09.879569 nspr-3   Saving settings file "/home/hallnknight/.config/VirtualBox/VirtualBox.xml" with version "1.12-linux"
00:22:12.706151 nspr-2   Saving settings file "/home/hallnknight/.config/VirtualBox/VirtualBox.xml" with version "1.12-linux"
00:22:20.312774 main     VirtualBox: object deletion starts
00:22:20.312844 main     ERROR [COM]: aRC=VBOX_E_OBJECT_IN_USE (0x80bb000c) aIID={ad47ad09-787b-44ab-b343-a082a3f2dfb1} aComponent={MediumWrap} aText={Medium '/home/hallnknight/VirtualBox VMs/Arco/Arco.vdi' cannot be closed because it is still attached to 1 virtual machines}, preserve=false aResultDetail=0
00:22:20.395440 main     HostDnsMonitor: shutting down ...
00:22:20.411437 main     HostDnsMonitor: shut down
00:22:20.423576 Watcher  ERROR [COM]: aRC=E_ACCESSDENIED (0x80070005) aIID={d0a0163f-e254-4e5b-a1f2-011cf991c38d} aComponent={VirtualBoxWrap} aText={The object is not ready}, preserve=false aResultDetail=0
00:22:25.431504 main     {00007f918c0162a0} HostPowerServiceLinux::~HostPowerServiceLinux: RTThreadWait() for 5000 ms failed with VERR_TIMEOUT
00:22:25.568551 main     VirtualBox: object deleted
