08:35:54 PM IST.009: CPU Name: Intel(R) Core(TM) i5-8300H CPU @ 2.30GHz
08:35:54 PM IST.009: CPU Speed: 2280.855MHz
08:35:54 PM IST.009: Physical Cores: 4, Logical Cores: 8
08:35:54 PM IST.009: Physical Memory: 7795MB Total, 132MB Free
08:35:54 PM IST.009: Kernel Version: Linux 5.12.4-arch1-2
08:35:54 PM IST.009: Distribution: "Garuda Linux" Unknown
08:35:54 PM IST.009: Session Type: x11
08:35:54 PM IST.010: Window System: X11.0, Vendor: The X.Org Foundation, Version: 1.20.11
08:35:54 PM IST.012: Portable mode: false
08:35:55 PM IST.455: OBS 26.1.2-2 (linux)
08:35:55 PM IST.455: ---------------------------------
08:35:55 PM IST.457: ---------------------------------
08:35:55 PM IST.457: audio settings reset:
08:35:55 PM IST.457: 	samples per sec: 48000
08:35:55 PM IST.457: 	speakers:        2
08:35:55 PM IST.760: ---------------------------------
08:35:55 PM IST.760: Initializing OpenGL...
08:35:55 PM IST.873: Loading up OpenGL on adapter NVIDIA Corporation NVIDIA GeForce GTX 1050 Ti/PCIe/SSE2
08:35:55 PM IST.873: OpenGL loaded successfully, version 3.3.0 NVIDIA 465.31, shading language 3.30 NVIDIA via Cg compiler
08:35:56 PM IST.865: ---------------------------------
08:35:56 PM IST.865: video settings reset:
08:35:56 PM IST.865: 	base resolution:   1920x1080
08:35:56 PM IST.865: 	output resolution: 1920x1080
08:35:56 PM IST.865: 	downscale filter:  Bicubic
08:35:56 PM IST.865: 	fps:               30/1
08:35:56 PM IST.865: 	format:            NV12
08:35:56 PM IST.865: 	YUV mode:          709/Partial
08:35:56 PM IST.865: NV12 texture support not available
08:35:56 PM IST.865: Audio monitoring device:
08:35:56 PM IST.865: 	name: Default
08:35:56 PM IST.865: 	id: default
08:35:56 PM IST.866: ---------------------------------
08:35:56 PM IST.911: Failed to load 'en-US' text for module: 'decklink-captions.so'
08:35:57 PM IST.026: Failed to load 'en-US' text for module: 'decklink-ouput-ui.so'
08:36:03 PM IST.170: A DeckLink iterator could not be created.  The DeckLink drivers may not be installed
08:36:03 PM IST.170: No blackmagic support
08:36:03 PM IST.313: v4l2loopback not installed, virtual camera disabled
08:36:04 PM IST.085: NVENC supported
08:36:04 PM IST.085: FFMPEG VAAPI supported
08:36:04 PM IST.419: VLC found, VLC video source enabled
08:36:04 PM IST.419: ---------------------------------
08:36:04 PM IST.419:   Loaded Modules:
08:36:04 PM IST.419:     vlc-video.so
08:36:04 PM IST.419:     text-freetype2.so
08:36:04 PM IST.419:     rtmp-services.so
08:36:04 PM IST.419:     obs-x264.so
08:36:04 PM IST.419:     obs-transitions.so
08:36:04 PM IST.419:     obs-outputs.so
08:36:04 PM IST.420:     obs-libfdk.so
08:36:04 PM IST.420:     obs-filters.so
08:36:04 PM IST.420:     obs-ffmpeg.so
08:36:04 PM IST.420:     linux-v4l2.so
08:36:04 PM IST.420:     linux-pulseaudio.so
08:36:04 PM IST.420:     linux-jack.so
08:36:04 PM IST.420:     linux-decklink.so
08:36:04 PM IST.420:     linux-capture.so
08:36:04 PM IST.420:     linux-alsa.so
08:36:04 PM IST.420:     image-source.so
08:36:04 PM IST.420:     frontend-tools.so
08:36:04 PM IST.420:     decklink-ouput-ui.so
08:36:04 PM IST.420:     decklink-captions.so
08:36:04 PM IST.420: ---------------------------------
08:36:04 PM IST.420: ==== Startup complete ===============================================
08:36:04 PM IST.465: All scene data cleared
08:36:04 PM IST.465: ------------------------------------------------
08:36:04 PM IST.504: pulse-input: Server name: 'pulseaudio 14.2'
08:36:04 PM IST.504: pulse-input: Audio format: s16le, 48000 Hz, 2 channels
08:36:04 PM IST.504: pulse-input: Started recording from 'alsa_output.pci-0000_00_1f.3.analog-stereo.monitor'
08:36:04 PM IST.504: [Loaded global audio device]: 'Desktop Audio'
08:36:04 PM IST.599: pulse-input: Server name: 'pulseaudio 14.2'
08:36:04 PM IST.600: pulse-input: Audio format: s16le, 44100 Hz, 2 channels
08:36:04 PM IST.600: pulse-input: Started recording from 'alsa_input.pci-0000_00_1f.3.analog-stereo'
08:36:04 PM IST.600: [Loaded global audio device]: 'Mic/Aux'
08:36:04 PM IST.601: xshm-input: Geometry 1920x1080 @ 0,0
08:36:04 PM IST.601: Switched to scene 'Scene'
08:36:04 PM IST.601: ------------------------------------------------
08:36:04 PM IST.601: Loaded scenes:
08:36:04 PM IST.601: - scene 'Scene':
08:36:04 PM IST.601:     - source: 'avi' (xshm_input)
08:36:04 PM IST.601: ------------------------------------------------
08:36:05 PM IST.149: adding 42 milliseconds of audio buffering, total audio buffering is now 42 milliseconds (source: Mic/Aux)
08:36:05 PM IST.149: 
08:39:21 PM IST.498: ==== Shutting down ==================================================
08:39:21 PM IST.517: pulse-input: Stopped recording from 'alsa_output.pci-0000_00_1f.3.analog-stereo.monitor'
08:39:21 PM IST.518: pulse-input: Got 39867 packets with 9364024 frames
08:39:21 PM IST.519: pulse-input: Stopped recording from 'alsa_input.pci-0000_00_1f.3.analog-stereo'
08:39:21 PM IST.519: pulse-input: Got 19998 packets with 8683416 frames
08:39:21 PM IST.519: All scene data cleared
08:39:21 PM IST.519: ------------------------------------------------
08:39:21 PM IST.809: X Error: GLXBadDrawable, Major opcode: 152, Minor opcode: 26, Serial: 99300
08:39:21 PM IST.809: Failed to make context current.
08:39:21 PM IST.809: X Error: GLXBadDrawable, Major opcode: 152, Minor opcode: 26, Serial: 99302
08:39:21 PM IST.809: Failed to make context current.
08:39:21 PM IST.810: X Error: GLXBadDrawable, Major opcode: 152, Minor opcode: 26, Serial: 99304
08:39:21 PM IST.810: Failed to make context current.
08:39:21 PM IST.810: X Error: GLXBadDrawable, Major opcode: 152, Minor opcode: 26, Serial: 99306
08:39:21 PM IST.810: Failed to make context current.
08:39:21 PM IST.810: Failed to fetch parent window geometry!
08:39:21 PM IST.813: X Error: BadDrawable (invalid Pixmap or Window parameter), Major opcode: 152, Minor opcode: BadLength (poly request too large or internal Xlib length error), Serial: 99308
08:39:21 PM IST.813: X Error: GLXBadDrawable, Major opcode: 152, Minor opcode: BadAlloc (insufficient resources for operation), Serial: 99309
08:39:21 PM IST.813: X Error: GLXBadDrawable, Major opcode: 152, Minor opcode: 26, Serial: 99311
08:39:21 PM IST.813: Failed to make context current.
08:39:21 PM IST.813: X Error: GLXBadDrawable, Major opcode: 152, Minor opcode: 26, Serial: 99313
08:39:21 PM IST.813: Failed to make context current.
08:39:21 PM IST.882: [Scripting] Total detached callbacks: 0
08:39:21 PM IST.886: Freeing OBS context data
08:39:21 PM IST.906: == Profiler Results =============================
08:39:21 PM IST.906: run_program_init: 20335.5 ms
08:39:21 PM IST.906:  ┣OBSApp::AppInit: 227.123 ms
08:39:21 PM IST.906:  ┃ ┗OBSApp::InitLocale: 111.559 ms
08:39:21 PM IST.906:  ┗OBSApp::OBSInit: 11654.6 ms
08:39:21 PM IST.906:    ┣obs_startup: 3.283 ms
08:39:21 PM IST.906:    ┗OBSBasic::OBSInit: 10206.3 ms
08:39:21 PM IST.906:      ┣OBSBasic::InitBasicConfig: 0.131 ms
08:39:21 PM IST.906:      ┣OBSBasic::ResetAudio: 0.257 ms
08:39:21 PM IST.906:      ┣OBSBasic::ResetVideo: 1408.2 ms
08:39:21 PM IST.906:      ┣OBSBasic::InitOBSCallbacks: 0.003 ms
08:39:21 PM IST.906:      ┣OBSBasic::InitHotkeys: 0.204 ms
08:39:21 PM IST.906:      ┣obs_load_all_modules: 7553.61 ms
08:39:21 PM IST.906:      ┃ ┣obs_init_module(decklink-captions.so): 0.064 ms
08:39:21 PM IST.906:      ┃ ┣obs_init_module(decklink-ouput-ui.so): 0.65 ms
08:39:21 PM IST.906:      ┃ ┣obs_init_module(frontend-tools.so): 4703.35 ms
08:39:21 PM IST.906:      ┃ ┣obs_init_module(image-source.so): 0.007 ms
08:39:21 PM IST.906:      ┃ ┣obs_init_module(linux-alsa.so): 0.002 ms
08:39:21 PM IST.906:      ┃ ┣obs_init_module(linux-capture.so): 0.843 ms
08:39:21 PM IST.906:      ┃ ┣obs_init_module(linux-decklink.so): 0.216 ms
08:39:21 PM IST.906:      ┃ ┣obs_init_module(linux-jack.so): 0.001 ms
08:39:21 PM IST.907:      ┃ ┣obs_init_module(linux-pulseaudio.so): 0.004 ms
08:39:21 PM IST.907:      ┃ ┣obs_init_module(linux-v4l2.so): 48.901 ms
08:39:21 PM IST.907:      ┃ ┣obs_init_module(obs-ffmpeg.so): 206.338 ms
08:39:21 PM IST.907:      ┃ ┃ ┗nvenc_check: 206.249 ms
08:39:21 PM IST.907:      ┃ ┣obs_init_module(obs-filters.so): 0.019 ms
08:39:21 PM IST.907:      ┃ ┣obs_init_module(obs-libfdk.so): 0.002 ms
08:39:21 PM IST.907:      ┃ ┣obs_init_module(obs-outputs.so): 0.002 ms
08:39:21 PM IST.907:      ┃ ┣obs_init_module(obs-transitions.so): 0.006 ms
08:39:21 PM IST.907:      ┃ ┣obs_init_module(obs-x264.so): 0.001 ms
08:39:21 PM IST.907:      ┃ ┣obs_init_module(rtmp-services.so): 13.824 ms
08:39:21 PM IST.907:      ┃ ┣obs_init_module(text-freetype2.so): 0.013 ms
08:39:21 PM IST.907:      ┃ ┗obs_init_module(vlc-video.so): 141.837 ms
08:39:21 PM IST.907:      ┣OBSBasic::ResetOutputs: 0.115 ms
08:39:21 PM IST.907:      ┣OBSBasic::CreateHotkeys: 0.035 ms
08:39:21 PM IST.907:      ┣OBSBasic::InitService: 19.434 ms
08:39:21 PM IST.907:      ┣OBSBasic::InitPrimitives: 0.387 ms
08:39:21 PM IST.907:      ┗OBSBasic::Load: 162.794 ms
08:39:21 PM IST.907: obs_hotkey_thread(25 ms): min=0.075 ms, median=0.456 ms, max=36.647 ms, 99th percentile=13.327 ms, 99.9615% below 25 ms
08:39:21 PM IST.907: audio_thread(Audio): min=0 ms, median=0.055 ms, max=24.624 ms, 99th percentile=0.362 ms
08:39:21 PM IST.907: obs_graphics_thread(33.3333 ms): min=0.474 ms, median=4.207 ms, max=281.169 ms, 99th percentile=19.347 ms, 99.9023% below 33.333 ms
08:39:21 PM IST.907:  ┣tick_sources: min=0 ms, median=3.102 ms, max=29.08 ms, 99th percentile=12.361 ms
08:39:21 PM IST.907:  ┣output_frame: min=0.187 ms, median=0.415 ms, max=33.725 ms, 99th percentile=1.465 ms
08:39:21 PM IST.907:  ┃ ┗gs_context(video->graphics): min=0.187 ms, median=0.414 ms, max=33.724 ms, 99th percentile=1.463 ms
08:39:21 PM IST.907:  ┃   ┣render_video: min=0.011 ms, median=0.132 ms, max=33.538 ms, 99th percentile=0.768 ms
08:39:21 PM IST.907:  ┃   ┃ ┗render_main_texture: min=0.007 ms, median=0.118 ms, max=33.511 ms, 99th percentile=0.708 ms
08:39:21 PM IST.907:  ┃   ┗gs_flush: min=0.001 ms, median=0.01 ms, max=2.916 ms, 99th percentile=0.074 ms
08:39:21 PM IST.907:  ┗render_displays: min=0.071 ms, median=0.273 ms, max=36.039 ms, 99th percentile=1.797 ms
08:39:21 PM IST.907: =================================================
08:39:21 PM IST.907: == Profiler Time Between Calls ==================
08:39:21 PM IST.907: obs_hotkey_thread(25 ms): min=25.141 ms, median=25.568 ms, max=61.818 ms, 34.8473% within ±2% of 25 ms (0% lower, 65.1527% higher)
08:39:21 PM IST.907: obs_graphics_thread(33.3333 ms): min=15.267 ms, median=33.333 ms, max=281.177 ms, 99.8046% within ±2% of 33.333 ms (0.097688% lower, 0.097688% higher)
08:39:21 PM IST.907: =================================================
08:39:21 PM IST.941: Number of memory leaks: 0
